PLATFORM: x86_64-centos7-clang10-dbg
VERSION: 99
COMPILER: clang;10.0.0
Python; 3199b; 3.8.6; ./Python/3.8.6/x86_64-centos7-clang10-dbg; sqlite-3c47f,libffi-26487
numpy; 32813; 1.18.2; ./numpy/1.18.2/x86_64-centos7-clang10-dbg; setuptools-27e03,blas-a9d2a,Python-3199b,cython-83dca
bison; d8b6b; 3.3.2; ./bison/3.3.2/x86_64-centos7-clang10-dbg; m4-3bfe7
blas; a9d2a; 0.3.10.openblas; ./blas/0.3.10.openblas/x86_64-centos7-clang10-dbg; 
Boost; 26bf8; 1.73.0; ./Boost/1.73.0/x86_64-centos7-clang10-dbg; numpy-32813,zlib-8af4c,Python-3199b
cfitsio; e4bb8; 3.48; ./cfitsio/3.48/x86_64-centos7-clang10-dbg; 
cython; 83dca; 0.29.20; ./cython/0.29.20/x86_64-centos7-clang10-dbg; setuptools-27e03,Python-3199b
Davix; adeb0; 0.7.6; ./Davix/0.7.6/x86_64-centos7-clang10-dbg; Boost-26bf8,libxml2-9cd93
fftw; 102c2; 3.3.8; ./fftw3/3.3.8/x86_64-centos7-clang10-dbg; 
gl2ps; 2afdb; 1.4.0; ./gl2ps/1.4.0/x86_64-centos7-clang10-dbg; png-5186a,zlib-8af4c
GSL; ecdfc; 2.6; ./GSL/2.6/x86_64-centos7-clang10-dbg; 
jemalloc; 8154a; 5.2.1; ./jemalloc/5.2.1/x86_64-centos7-clang10-dbg; 
jsonmcpp; 72770; 3.9.1; ./jsonmcpp/3.9.1/x86_64-centos7-clang10-dbg; 
libaio; 3a85a; 0.3.110-1; ./libaio/0.3.110-1/x86_64-centos7-clang10-dbg; 
libffi; 26487; 3.2.1; ./libffi/3.2.1/x86_64-centos7-clang10-dbg; 
libsodium; 0b20d; 1.0.18; ./libsodium/1.0.18/x86_64-centos7-clang10-dbg; 
libxml2; 9cd93; 2.9.10; ./libxml2/2.9.10/x86_64-centos7-clang10-dbg; 
lz4; 9bdfe; 1.9.2; ./lz4/1.9.2/x86_64-centos7-clang10-dbg; 
m4; 3bfe7; 1.4.17; ./m4/1.4.17/x86_64-centos7-clang10-dbg; 
msgpackc; c4011; 3.2.0; ./msgpackc/3.2.0/x86_64-centos7-clang10-dbg; 
mysql; 37651; 10.4.12; ./mysql/10.4.12/x86_64-centos7-clang10-dbg; Boost-26bf8,zlib-8af4c,lz4-9bdfe,bison-d8b6b,zeromq-3b844,msgpackc-c4011,jemalloc-8154a,libxml2-9cd93
oracle; 0ceff; 19.3.0.0.0; ./oracle/19.3.0.0.0/x86_64-centos7-clang10-dbg; libaio-3a85a
pkg_config; c6baf; 0.29.2; ./pkg_config/0.29.2/x86_64-centos7-clang10-dbg; 
png; 5186a; 1.6.37; ./png/1.6.37/x86_64-centos7-clang10-dbg; zlib-8af4c
setuptools; 27e03; 44.1.0; ./setuptools/44.1.0/x86_64-centos7-clang10-dbg; Python-3199b
sqlite; 3c47f; 3320300; ./sqlite/3320300/x86_64-centos7-clang10-dbg; 
tbb; daa7e; 2020_U2; ./tbb/2020_U2/x86_64-centos7-clang10-dbg; 
Vc; d25d4; 1.4.1; ./Vc/1.4.1/x86_64-centos7-clang10-dbg; 
vdt; 992df; 0.4.3; ./vdt/0.4.3/x86_64-centos7-clang10-dbg; 
xrootd; 61acf; 4.12.3; ./xrootd/4.12.3/x86_64-centos7-clang10-dbg; zlib-8af4c,libxml2-9cd93,Python-3199b
zeromq; 3b844; 4.3.2; ./zeromq/4.3.2/x86_64-centos7-clang10-dbg; pkg_config-c6baf,libsodium-0b20d
zlib; 8af4c; 1.2.11; ./zlib/1.2.11/x86_64-centos7-clang10-dbg; 
ROOT; 71cc6; v6.22.06; ./ROOT/v6.22.06/x86_64-centos7-clang10-dbg; GSL-ecdfc,xrootd-61acf,gl2ps-2afdb,tbb-daa7e,dcap-cdd28,vdt-992df,oracle-0ceff,jsonmcpp-72770,srm_ifce-be254,zlib-8af4c,Vc-d25d4,Davix-adeb0,blas-a9d2a,cfitsio-e4bb8,numpy-32813,gfal-6fc75,mysql-37651,libxml2-9cd93,Python-3199b,fftw-102c2
prompt_toolkit; 5446b; 2.0.9; ./prompt_toolkit/2.0.9/x86_64-centos7-clang10-dbg; setuptools-27e03,six-f083a,wcwidth-d9bfe,Python-3199b
ipykernel; d3057; 5.1.1; ./ipykernel/5.1.1/x86_64-centos7-clang10-dbg; setuptools-27e03,six-f083a,jupyter_client-274a4,ipython-7aecb,tornado-897a1,traitlets-79480,Python-3199b
networkx; c7b5c; 2.3; ./networkx/2.3/x86_64-centos7-clang10-dbg; setuptools-27e03,decorator-e21fb,Python-3199b
matplotlib; b726a; 3.3.3; ./matplotlib/3.3.3/x86_64-centos7-clang10-dbg; setuptools-27e03,backports-1c7b1,mock-79169,freetype-08d63,six-f083a,kiwisolver-e6ad1,messaging-58db2,cycler-94dd8,pycairo-afd39,pyparsing-6a86f,tornado-897a1,pillow-71095,pytz-08128,numpy-32813,certifi-dde3e,python_dateutil-9ff92,Python-3199b,nose-5b609
astroid; 8d0b4; 2.3.3; ./astroid/2.3.3/x86_64-centos7-clang10-dbg; setuptools-27e03,six-f083a,lazy_object_proxy-07738,typed_ast-1fb50,pytest_runner-19882,wrapt-f9767,Python-3199b
bcrypt; ed080; 3.1.6; ./bcrypt/3.1.6/x86_64-centos7-clang10-dbg; setuptools-27e03,six-f083a,cffi-7f42b,Python-3199b
Catch2; b9219; 2.13.4; ./Catch2/2.13.4/x86_64-centos7-clang10-dbg; 
control; 2cb6d; 0.8.2; ./control/0.8.2/x86_64-centos7-clang10-dbg; setuptools-27e03,matplotlib-b726a,scipy-2a3a5,numpy-32813,Python-3199b
docopt; eea9b; 0.6.2; ./docopt/0.6.2/x86_64-centos7-clang10-dbg; setuptools-27e03,Python-3199b
gast; 6accc; 0.3.3; ./gast/0.3.3/x86_64-centos7-clang10-dbg; setuptools-27e03,Python-3199b
h5py; faced; 2.10.0; ./h5py/2.10.0/x86_64-centos7-clang10-dbg; setuptools-27e03,six-f083a,pkg_config-c6baf,cython-83dca,hdf5-a3b1e,pkgconfig-5c0e3,numpy-32813,Python-3199b
hdf5; a3b1e; 1.10.6; ./hdf5/1.10.6/x86_64-centos7-clang10-dbg; zlib-8af4c
hepdata_converter; 86c20; 0.2.3; ./hepdata_converter/0.2.3/x86_64-centos7-clang10-dbg; setuptools-27e03,matplotlib-b726a,hepdata_validator-437a2,Python-3199b
hypothesis; bd043; 5.3.0; ./hypothesis/5.3.0/x86_64-centos7-clang10-dbg; setuptools-27e03,Python-3199b,attrs-6eb83
ipython; 7aecb; 7.5.0; ./ipython/7.5.0/x86_64-centos7-clang10-dbg; setuptools-27e03,ptyprocess-e6e90,six-f083a,backports-1c7b1,pexpect-2ac74,prompt_toolkit-5446b,pickleshare-a69d8,pygments-5f9a9,ipython_genutils-94aa5,decorator-e21fb,traitlets-79480,jedi-8fbb8,backcall-032cd,pip-ee752,simplegeneric-6c6c6,Python-3199b
keras_preprocessing; b0cb3; 1.1.2; ./keras_preprocessing/1.1.2/x86_64-centos7-clang10-dbg; setuptools-27e03,keras-ec4b2,Python-3199b
PyYAML; 18c69; 5.3.1; ./pyyaml/5.3.1/x86_64-centos7-clang10-dbg; setuptools-27e03,Python-3199b
paramiko; c233a; 2.4.2; ./paramiko/2.4.2/x86_64-centos7-clang10-dbg; setuptools-27e03,cryptography-34e41,pyasn1-a72f6,pynacl-8fb56,bcrypt-ed080,Python-3199b
parsl; b8615; 0.9.0; ./parsl/0.9.0/x86_64-centos7-clang10-dbg; tblib-7f558,requests-11042,ipyparallel-cd2a4,paramiko-c233a,typeguard-9e6fd,ipykernel-d3057,globus_sdk-eb96a,psutil-06bdb,dill-0b1f6
PyHEADTAIL; c9618; 1.14.1; ./PyHEADTAIL/1.14.1/x86_64-centos7-clang10-dbg; setuptools-27e03,cython-83dca,scipy-2a3a5,numpy-32813,h5py-faced,Python-3199b
pylint; 2a5da; 2.3.1; ./pylint/2.3.1/x86_64-centos7-clang10-dbg; setuptools-27e03,mccabe-9ed51,isort-4faea,astroid-8d0b4,Python-3199b
pynacl; 8fb56; 1.3.0; ./pynacl/1.3.0/x86_64-centos7-clang10-dbg; setuptools-27e03,six-f083a,cffi-7f42b,pycparser-6a30e,Python-3199b
pyserial; d0ae4; 3.4; ./pyserial/3.4/x86_64-centos7-clang10-dbg; setuptools-27e03,Python-3199b
pytables; b0604; 3.6.1; ./pytables/3.6.1/x86_64-centos7-clang10-dbg; numexpr-d9e73,cython-83dca,hdf5-a3b1e,numpy-32813,Python-3199b
pytest; c572c; 6.1.1; ./pytest/6.1.1/x86_64-centos7-clang10-dbg; setuptools-27e03,six-f083a,packaging-11c14,more_itertools-1f3ed,attrs-6eb83,funcsigs-94a5e,py-e4ba6,pluggy-86414,atomicwrites-38de1,iniconfig-50696,Python-3199b
python_vxi11; 1ffc4; 0.9; ./python_vxi11/0.9/x86_64-centos7-clang10-dbg; setuptools-27e03,Python-3199b
redis; da916; 3.2.1; ./redis/3.2.1/x86_64-centos7-clang10-dbg; setuptools-27e03,Python-3199b
typed_ast; 1fb50; 1.4.0; ./typed_ast/1.4.0/x86_64-centos7-clang10-dbg; setuptools-27e03,Python-3199b
typeguard; 9e6fd; 2.7.0; ./typeguard/2.7.0/x86_64-centos7-clang10-dbg; setuptools_scm-e036f
iminuit; 4b8d6; 1.5.2; ./iminuit/1.5.2/x86_64-centos7-clang10-dbg; setuptools-27e03,pytest-c572c,matplotlib-b726a,ipython-7aecb,cython-83dca,pylint-2a5da,scipy-2a3a5,numpy-32813,Python-3199b
ipydatawidgets; e8325; 4.0.1; ./ipydatawidgets/4.0.1/x86_64-centos7-clang10-dbg; setuptools-27e03,traittypes-d9e57,Python-3199b
itk; 33087; 5.1.1; ./itk/5.1.1/x86_64-centos7-clang10-dbg; itk_registration-f0276,itk_core-a13f2,itk_segmentation-dd1a5,itk_io-297d2,itk_filtering-a56cd,numpy-32813,itk_numerics-c6ff0,pip-ee752,Python-3199b
itk_core; a13f2; 5.1.1; ./itk_core/5.1.1/x86_64-centos7-clang10-dbg; pip-ee752,Python-3199b
itk_io; 297d2; 5.1.1; ./itk_io/5.1.1/x86_64-centos7-clang10-dbg; itk_core-a13f2,pip-ee752,Python-3199b
itk_filtering; a56cd; 5.1.1; ./itk_filtering/5.1.1/x86_64-centos7-clang10-dbg; itk_core-a13f2,itk_numerics-c6ff0,pip-ee752,Python-3199b
itk_meshtopolydata; 4d7d2; 0.6.2; ./itk_meshtopolydata/0.6.2/x86_64-centos7-clang10-dbg; numpy-32813,pip-ee752,itk_core-a13f2,Python-3199b
itk_numerics; c6ff0; 5.1.1; ./itk_numerics/5.1.1/x86_64-centos7-clang10-dbg; itk_core-a13f2,pip-ee752,Python-3199b
itkwidgets; fc227; 0.32.0; ./itkwidgets/0.32.0/x86_64-centos7-clang10-dbg; six-f083a,colorcet-47330,ipympl-cefef,matplotlib-b726a,itk_meshtopolydata-4d7d2,itk_core-a13f2,itk_io-297d2,itk_filtering-a56cd,ipywidgets-b5235,numpy-32813,zstandard-6c3bd,ipydatawidgets-e8325,scipy-2a3a5
itk_registration; f0276; 5.1.1; ./itk_registration/5.1.1/x86_64-centos7-clang10-dbg; pip-ee752,itk_filtering-a56cd,Python-3199b
itk_segmentation; dd1a5; 5.1.1; ./itk_segmentation/5.1.1/x86_64-centos7-clang10-dbg; pip-ee752,itk_filtering-a56cd,Python-3199b
jupyter_console; 58a06; 6.1.0; ./jupyter_console/6.1.0/x86_64-centos7-clang10-dbg; setuptools-27e03,prompt_toolkit-5446b,pygments-5f9a9,jupyter_core-a3ce7,ipython-7aecb,ipykernel-d3057,Python-3199b
jupyterlab; 34455; 1.2.6; ./jupyterlab/1.2.6/x86_64-centos7-clang10-dbg; jupyterlab_server-cac4c,node.js-1566a
jupyterlab_server; cac4c; 1.0.6; ./jupyterlab_server/1.0.6/x86_64-centos7-clang10-dbg; pyjson5-b3b19,jupyter-87b34
scikitlearn; bb0e9; 0.21.2; ./scikitlearn/0.21.2/x86_64-centos7-clang10-dbg; cython-83dca,joblib-ac5a3,scipy-2a3a5,numpy-32813,Python-3199b
scipy; 2a3a5; 1.5.1; ./scipy/1.5.1/x86_64-centos7-clang10-dbg; setuptools-27e03,numpy-32813,Python-3199b
stomppy; 3595a; 6.1.0; ./stomppy/6.1.0/x86_64-centos7-clang10-dbg; setuptools-27e03,Python-3199b
toml; d1026; 0.10.2; ./toml/0.10.2/x86_64-centos7-clang10-dbg; setuptools-27e03,Python-3199b
more_itertools; 1f3ed; 7.0.0; ./more_itertools/7.0.0/x86_64-centos7-clang10-dbg; setuptools-27e03,six-f083a,Python-3199b
upandas; a2191; 0.2.0; ./upandas/0.2.0/x86_64-centos7-clang10-dbg; uncertainties-82b25,pandas-63a4e
llvmlite; eadd9; 0.34.0; ./llvmlite/0.34.0/x86_64-centos7-clang10-dbg; setuptools-27e03,pip-ee752,Python-3199b,wheel-dc708
numba; bc978; 0.51.2; ./numba/0.51.2/x86_64-centos7-clang10-dbg; setuptools-27e03,llvmlite-eadd9,numpy-32813,Python-3199b
opt_einsum; dd1f4; 3.2.0; ./opt_einsum/3.2.0/x86_64-centos7-clang10-dbg; setuptools-27e03,numpy-32813,Python-3199b
grpcio; d97df; 1.28.1; ./grpcio/1.28.1/x86_64-centos7-clang10-dbg; setuptools-27e03,six-f083a,Python-3199b
jupyter_client; 274a4; 5.3.4; ./jupyter_client/5.3.4/x86_64-centos7-clang10-dbg; setuptools-27e03,jupyter_core-a3ce7,pyzmq-d8e7f,tornado-897a1,traitlets-79480,python_dateutil-9ff92,Python-3199b
jupyter_core; a3ce7; 4.6.1; ./jupyter_core/4.6.1/x86_64-centos7-clang10-dbg; setuptools-27e03,traitlets-79480,Python-3199b
tensorflow; e2947; 2.3.0; ./tensorflow/2.3.0/x86_64-centos7-clang10-dbg; setuptools-27e03,six-f083a,mock-79169,wheel-dc708,tensorflow_estimator-eb584,keras_applications-c8240,absl_py-ccb69,astunparse-c0056,tensorboard-e0ad1,numpy-32813,keras_preprocessing-b0cb3,pip-ee752,opt_einsum-dd1f4,Python-3199b,wrapt-f9767
tensorflow_estimator; eb584; 2.3.0; ./tensorflow_estimator/2.3.0/x86_64-centos7-clang10-dbg; setuptools-27e03,six-f083a,mock-79169,wheel-dc708,absl_py-ccb69,funcsigs-94a5e,gast-6accc,numpy-32813,astor-cb8d6,pip-ee752,termcolor-53dbb,Python-3199b
tensorboard; e0ad1; 2.3.0; ./tensorboard/2.3.0/x86_64-centos7-clang10-dbg; setuptools-27e03,six-f083a,mock-79169,wheel-dc708,absl_py-ccb69,grpcio-d97df,werkzeug-0963b,markdown-b42d1,google_auth_oauthlib-616bd,numpy-32813,pip-ee752,Python-3199b
tensorboard_plugin_wit; b76bb; 1.7.0; ./tensorboard_plugin_wit/1.7.0/x86_64-centos7-clang10-dbg; setuptools-27e03,wheel-dc708,tensorboard-e0ad1,tensorflow-e2947,pip-ee752,Python-3199b
dataclasses; e8c24; 0.7; ./dataclasses/0.7/x86_64-centos7-clang10-dbg; setuptools-27e03,Python-3199b
torch; cc2e3; 1.7.0; ./torch/1.7.0/x86_64-centos7-clang10-dbg; setuptools-27e03,CMake-2ffec,cffi-7f42b,blas-a9d2a,numpy-32813,ninja-3d8f6,PyYAML-18c69,Python-3199b
torchvision; 9b377; 0.8.1; ./torchvision/0.8.1/x86_64-centos7-clang10-dbg; six-f083a,pillow-71095,torch-cc2e3,typing_extensions-49fdd
RELAX; 5682e; root6; ./RELAX/root6/x86_64-centos7-clang10-dbg; ROOT-71cc6,GSL-ecdfc,HepPDT-dba76,clhep-b903d,HepMC-d5a39,cmaketools-5b765
HepMC; d5a39; 2.06.11; ./HepMC/2.06.11/x86_64-centos7-clang10-dbg; 
Geant4; 03f6c; 10.07; ./Geant4/10.07/x86_64-centos7-clang10-dbg; expat-ad2fa,clhep-b903d,XercesC-714f6,VecGeom-30bc7,Qt5-f4191
Garfield++; 765f4; HEAD; ./Garfield++/HEAD/x86_64-centos7-clang10-dbg; ROOT-71cc6,Geant4-03f6c
DD4hep; 0184e; 01.15; ./DD4hep/01.15/x86_64-centos7-clang10-dbg; ROOT-71cc6,Geant4-03f6c,EDM4hep-8a1f6,tbb-daa7e,hepmc3-86168,LCIO-76e9e,XercesC-714f6,Boost-26bf8,assimp-8ea63,Python-3199b
EDM4hep; 8a1f6; 00.03; ./EDM4hep/00.03/x86_64-centos7-clang10-dbg; ROOT-71cc6,HepPDT-dba76,podio-b26c9,Jinja2-e5e46,tricktrack-829d0,delphes-55b24,HepMC-d5a39
lcgenv; 74a32; 1.3.17; ./lcgenv/1.3.17/x86_64-centos7-clang10-dbg; 
absl_py; ccb69; 0.7.1; ./absl_py/0.7.1/x86_64-centos7-clang10-dbg; setuptools-27e03,Python-3199b
AIDA; 3fe9f; 3.2.1; ./AIDA/3.2.1/x86_64-centos7-clang10-dbg; 
alpaka; 1d0c7; 0.5.0; ./alpaka/0.5.0/x86_64-centos7-clang10-dbg; Boost-26bf8,tbb-daa7e
ant; 12058; 1.10.7; ./ant/1.10.7/x86_64-centos7-clang10-dbg; java-884d8
arrow; 8ee77; 0.16.0; ./arrow/0.16.0/x86_64-centos7-clang10-dbg; rapidjson-0b862,brotli-33020,flatbuffers-c4774,glog-d67fd,snappy-4d9e7,Boost-26bf8,lz4-9bdfe,thrift-42393,double_conversion-6c1f5,numpy-32813,gflags-4cfd4,Python-3199b
assimp; 8ea63; 5.0.1; ./assimp/5.0.1/x86_64-centos7-clang10-dbg; Boost-26bf8
asn1crypto; 40338; 0.24.0; ./asn1crypto/0.24.0/x86_64-centos7-clang10-dbg; setuptools-27e03,Python-3199b
astor; cb8d6; 0.8.1; ./astor/0.8.1/x86_64-centos7-clang10-dbg; setuptools-27e03,Python-3199b
astunparse; c0056; 1.6.3; ./astunparse/1.6.3/x86_64-centos7-clang10-dbg; setuptools-27e03,six-f083a,Python-3199b
atomicwrites; 38de1; 1.3.0; ./atomicwrites/1.3.0/x86_64-centos7-clang10-dbg; setuptools-27e03,Python-3199b
attrs; 6eb83; 19.3.0; ./attrs/19.3.0/x86_64-centos7-clang10-dbg; setuptools-27e03,Python-3199b
autoconf; 8d7bc; 2.69; ./autoconf/2.69/x86_64-centos7-clang10-dbg; m4-3bfe7
automake; db22f; 1.16.1; ./automake/1.16.1/x86_64-centos7-clang10-dbg; autoconf-8d7bc
autopep8; e54b8; 1.4.4; ./autopep8/1.4.4/x86_64-centos7-clang10-dbg; setuptools-27e03,pycodestyle-f0d66,Python-3199b
awkward; be086; 0.12.17; ./awkward/0.12.17/x86_64-centos7-clang10-dbg; numpy-32813,pytest_runner-19882
backcall; 032cd; 0.1.0; ./backcall/0.1.0/x86_64-centos7-clang10-dbg; setuptools-27e03,Python-3199b
backports; 1c7b1; 1.0.0; ./backports/1.0.0/x86_64-centos7-clang10-dbg; setuptools-27e03,setuptools_scm-e036f,pip-ee752,Python-3199b
backports_abc; 9862f; 0.5; ./backports_abc/0.5/x86_64-centos7-clang10-dbg; setuptools-27e03,Python-3199b
benchmark; 2aecd; 1.5.0; ./benchmark/1.5.0/x86_64-centos7-clang10-dbg; gtest-b11fe
bleach; e2cb0; 3.1.0; ./bleach/3.1.0/x86_64-centos7-clang10-dbg; setuptools-27e03,html5lib-a0c99,Python-3199b,six-f083a
brotli; 33020; 1.0.7; ./brotli/1.0.7/x86_64-centos7-clang10-dbg; 
caniusepython3; a8531; 7.1.0; ./caniusepython3/7.1.0/x86_64-centos7-clang10-dbg; setuptools-27e03,distlib-46c78,requests-11042,Python-3199b,packaging-11c14
C50; 2aa47; 2.07; ./C50/2.07/x86_64-centos7-clang10-dbg; 
cachetools; 3bdaf; 3.1.1; ./cachetools/3.1.1/x86_64-centos7-clang10-dbg; setuptools-27e03,Python-3199b
cairo; f2c05; 1.17.2; ./cairo/1.17.2/x86_64-centos7-clang10-dbg; pkg_config-c6baf,freetype-08d63,fontconfig-241fb,pixman-46112,png-5186a
cartopy; 356ef; 0.17.0; ./cartopy/0.17.0/x86_64-centos7-clang10-dbg; setuptools-27e03,proj-42070,shapely-21ab8,six-f083a,pyshp-c9b9c,cython-83dca,geos-8602e,numpy-32813
ccache; 7651f; 3.7.1; ./ccache/3.7.1/x86_64-centos7-clang10-dbg; 
certifi; dde3e; 2019.3.9; ./certifi/2019.3.9/x86_64-centos7-clang10-dbg; setuptools-27e03,Python-3199b
cffi; 7f42b; 1.12.2; ./cffi/1.12.2/x86_64-centos7-clang10-dbg; setuptools-27e03,libffi-26487,pycparser-6a30e,Python-3199b
chardet; 6c479; 3.0.4; ./chardet/3.0.4/x86_64-centos7-clang10-dbg; setuptools-27e03,Python-3199b
clhep; b903d; 2.4.4.0; ./clhep/2.4.4.0/x86_64-centos7-clang10-dbg; 
click; a8864; 7.0; ./click/7.0/x86_64-centos7-clang10-dbg; setuptools-27e03,Python-3199b
cloudpickle; 58f53; 1.2.1; ./cloudpickle/1.2.1/x86_64-centos7-clang10-dbg; setuptools-27e03,Python-3199b
CMake; 2ffec; 3.18.4; ./CMake/3.18.4/x86_64-centos7-clang10-dbg; 
cmaketools; 5b765; 1.8; ./cmaketools/1.8/x86_64-centos7-clang10-dbg; 
cmmnbuild; f5ade; 2.1.3; ./cmmnbuild/2.1.3/x86_64-centos7-clang10-dbg; setuptools-27e03,requests-11042,Python-3199b
coin3d; 05e9a; 3.1.3p2; ./coin3d/3.1.3p2/x86_64-centos7-clang10-dbg; 
colorcet; 47330; 2.0.2; ./colorcet/2.0.2/x86_64-centos7-clang10-dbg; setuptools-27e03,Python-3199b,pyct-a41ce
CouchDB; 44f5f; 1.2; ./CouchDB/1.2/x86_64-centos7-clang10-dbg; setuptools-27e03,Python-3199b
coverage; 4db6b; 4.5.3; ./coverage/4.5.3/x86_64-centos7-clang10-dbg; setuptools-27e03,Python-3199b
cppgsl; 7a1b6; 3.1.0; ./cppgsl/3.1.0/x86_64-centos7-clang10-dbg; 
CppUnit; b79b3; 1.14.0; ./CppUnit/1.14.0/x86_64-centos7-clang10-dbg; 
cryptography; 34e41; 2.7; ./cryptography/2.7/x86_64-centos7-clang10-dbg; setuptools-27e03,six-f083a,cffi-7f42b,asn1crypto-40338,Python-3199b
cx_oracle; de2d9; 7.1.3; ./cx_oracle/7.1.3/x86_64-centos7-clang10-dbg; setuptools-27e03,Python-3199b,oracle-0ceff
cycler; 94dd8; 0.10.0; ./cycler/0.10.0/x86_64-centos7-clang10-dbg; setuptools-27e03,six-f083a,Python-3199b
dask; 7d5e1; 1.2.2; ./dask/1.2.2/x86_64-centos7-clang10-dbg; setuptools-27e03,graphviz_py-f449f,graphviz-11724,Python-3199b
decorator; e21fb; 4.3.2; ./decorator/4.3.2/x86_64-centos7-clang10-dbg; setuptools-27e03,Python-3199b
defusedxml; 08e54; 0.6.0; ./defusedxml/0.6.0/x86_64-centos7-clang10-dbg; setuptools-27e03,libxml2-9cd93,Python-3199b
delphes; 55b24; 3.4.3pre06; ./delphes/3.4.3pre06/x86_64-centos7-clang10-dbg; ROOT-71cc6
dill; 0b1f6; 0.3.2; ./dill/0.3.2/x86_64-centos7-clang10-dbg; setuptools-27e03,Python-3199b
distlib; 46c78; 0.2.9; ./distlib/0.2.9/x86_64-centos7-clang10-dbg; Python-3199b
distributed; b886a; 1.28.1; ./distributed/1.28.1/x86_64-centos7-clang10-dbg; setuptools-27e03,six-f083a,zict-1addf,tblib-7f558,sortedcontainers-f643e,toolz-73470,tornado-897a1,msgpack-f7671,dask-7d5e1,click-a8864,cloudpickle-58f53,psutil-06bdb,PyYAML-18c69,Python-3199b
double_conversion; 6c1f5; 3.1.5; ./double_conversion/3.1.5/x86_64-centos7-clang10-dbg; 
doxygen; 24a04; 1.8.18; ./doxygen/1.8.18/x86_64-centos7-clang10-dbg; xapian-02310,flex-5ae78,graphviz-11724,bison-d8b6b
eigen; 642a5; 3.3.7; ./eigen/3.3.7/x86_64-centos7-clang10-dbg; 
elasticsearch; 76771; 6.3.0; ./elasticsearch/6.3.0/x86_64-centos7-clang10-dbg; setuptools-27e03,Python-3199b,urllib3-011e6
entrypoints; c5a66; 0.3; ./entrypoints/0.3/x86_64-centos7-clang10-dbg; backports-1c7b1,pip-ee752,Python-3199b
expat; ad2fa; 2.2.6; ./expat/2.2.6/x86_64-centos7-clang10-dbg; 
fastjet; 0d9d5; 3.3.4; ./fastjet/3.3.4/x86_64-centos7-clang10-dbg; 
fjcontrib; befff; 1.044; ./fjcontrib/1.044/x86_64-centos7-clang10-dbg; fastjet-0d9d5
flake8; 9a2c2; 3.7.8; ./flake8/3.7.8/x86_64-centos7-clang10-dbg; setuptools-27e03,mccabe-9ed51,entrypoints-c5a66,pyflakes-a6ee8,pycodestyle-f0d66,Python-3199b
flatbuffers; c4774; 1.11.0; ./flatbuffers/1.11.0/x86_64-centos7-clang10-dbg; 
fmt; d6e16; 6.1.2; ./fmt/6.1.2/x86_64-centos7-clang10-dbg; 
fontconfig; 241fb; 2.13.1; ./fontconfig/2.13.1/x86_64-centos7-clang10-dbg; pkg_config-c6baf,gperf-699d7,freetype-08d63,expat-ad2fa
fplll; 5b7ab; 5.2.1; ./fplll/5.2.1/x86_64-centos7-clang10-dbg; mpfr-61226
freetype; 08d63; 2.10.0; ./freetype/2.10.0/x86_64-centos7-clang10-dbg; zlib-8af4c
Frontier_Client; 56775; 2.9.1; ./frontier_client/2.9.1/x86_64-centos7-clang10-dbg; pacparser-85c21,expat-ad2fa
ftjam; c7179; 2.5.2; ./ftjam/2.5.2/x86_64-centos7-clang10-dbg; bison-d8b6b
funcsigs; 94a5e; 1.0.2; ./funcsigs/1.0.2/x86_64-centos7-clang10-dbg; setuptools-27e03,Python-3199b
future; 4b8df; 0.17.1; ./future/0.17.1/x86_64-centos7-clang10-dbg; setuptools-27e03,Python-3199b
gdal; 0afc4; 2.4.4; ./gdal/2.4.4/x86_64-centos7-clang10-dbg; sqlite-3c47f,libgeotiff-b844e,tiff-3ce57,hdf5-a3b1e,zlib-8af4c,netcdfc-3e74b
pygdal; 82f6e; 2.4.4; ./pygdal/2.4.4/x86_64-centos7-clang10-dbg; setuptools-27e03,gdal-0afc4,numpy-32813,Python-3199b
gdb; f7011; 9.1; ./gdb/9.1/x86_64-centos7-clang10-dbg; texinfo-21d20,Python-3199b
genshi; 727bc; 0.7; ./genshi/0.7/x86_64-centos7-clang10-dbg; setuptools-27e03,Python-3199b
geos; 8602e; 3.7.2; ./geos/3.7.2/x86_64-centos7-clang10-dbg; 
gettext; 0f6a2; 0.20.1; ./gettext/0.20.1/x86_64-centos7-clang10-dbg; 
gflags; 4cfd4; 2.2.2; ./gflags/2.2.2/x86_64-centos7-clang10-dbg; 
git; e475b; 2.29.2; ./git/2.29.2/x86_64-centos7-clang10-dbg; expat-ad2fa
globus_sdk; eb96a; 1.8.0; ./globus_sdk/1.8.0/x86_64-centos7-clang10-dbg; requests-11042,PyJWT-c0cc3,six-f083a
glog; d67fd; 0.4.0; ./glog/0.4.0/x86_64-centos7-clang10-dbg; gflags-4cfd4
gnuplot; 0903c; 5.2.7; ./gnuplot/5.2.7/x86_64-centos7-clang10-dbg; pango-dc9ba,cairo-f2c05,Qt5-f4191
google_auth; 0a1e8; 1.6.3; ./google_auth/1.6.3/x86_64-centos7-clang10-dbg; setuptools-27e03,cachetools-3bdaf,six-f083a,pyasn1_modules-07fd8,rsa-f2b0f,Python-3199b
google_auth_oauthlib; 616bd; 0.4.1; ./google_auth_oauthlib/0.4.1/x86_64-centos7-clang10-dbg; setuptools-27e03,requests_oauthlib-80059,Python-3199b,google_auth-0a1e8
google_pasta; 8188e; 0.2.0; ./google_pasta/0.2.0/x86_64-centos7-clang10-dbg; setuptools-27e03,six-f083a,Python-3199b
gperf; 699d7; 3.1; ./gperf/3.1/x86_64-centos7-clang10-dbg; 
graphviz; 11724; 2.40.1; ./graphviz/2.40.1/x86_64-centos7-clang10-dbg; fontconfig-241fb,expat-ad2fa,libtool-9ad34,png-5186a,pango-dc9ba
graphviz_py; f449f; 0.11.1; ./graphviz_py/0.11.1/x86_64-centos7-clang10-dbg; setuptools-27e03,Python-3199b
gtest; b11fe; 1.10.0; ./gtest/1.10.0/x86_64-centos7-clang10-dbg; Python-3199b
hadoop; 0c87f; 2.7.5.1; ./hadoop/2.7.5.1/x86_64-centos7-clang10-dbg; protobuf-6f236,maven-15b64
hadoop_xrootd; ca575; 1.0.4; ./hadoop_xrootd/1.0.4/x86_64-centos7-clang10-dbg; maven-15b64,java-884d8,xrootd-61acf,hadoop-0c87f
harfbuzz; 54c61; 1.9.0; ./harfbuzz/1.9.0/x86_64-centos7-clang10-dbg; freetype-08d63,cairo-f2c05
hbase; 20707; 1.2.0; ./hbase/1.2.0/x86_64-centos7-clang10-dbg; java-884d8
HeapDict; 8e59b; 1.0.0; ./HeapDict/1.0.0/x86_64-centos7-clang10-dbg; setuptools-27e03,Python-3199b
hepdata_validator; 437a2; 0.2.3; ./hepdata_validator/0.2.3/x86_64-centos7-clang10-dbg; setuptools-27e03,jsonschema-53641,PyYAML-18c69,Python-3199b
hepmc3; 86168; 3.2.3; ./hepmc3/3.2.3/x86_64-centos7-clang10-dbg; ROOT-71cc6
HepPDT; dba76; 2.06.01; ./HepPDT/2.06.01/x86_64-centos7-clang10-dbg; 
highfive; 0228f; 2.0; ./highfive/2.0/x86_64-centos7-clang10-dbg; Boost-26bf8,hdf5-a3b1e
hive; 54fee; 1.1.1; ./hive/1.1.1/x86_64-centos7-clang10-dbg; java-884d8
html5lib; a0c99; 1.0.1; ./html5lib/1.0.1/x86_64-centos7-clang10-dbg; setuptools-27e03,six-f083a,webencodings-c9979,Python-3199b
idna; 6e42a; 2.8; ./idna/2.8/x86_64-centos7-clang10-dbg; setuptools-27e03,Python-3199b
imageio; a6c59; 2.5.0; ./imageio/2.5.0/x86_64-centos7-clang10-dbg; setuptools-27e03,pillow-71095,Python-3199b,numpy-32813
imagemagick; 1c0a1; 7.0.8.7; ./imagemagick/7.0.8.7/x86_64-centos7-clang10-dbg; freetype-08d63,fontconfig-241fb,zlib-8af4c,graphviz-11724,png-5186a,pango-dc9ba,fftw-102c2
importlib_metadata; 30aeb; 2.0.0; ./importlib_metadata/2.0.0/x86_64-centos7-clang10-dbg; setuptools-27e03,six-f083a,zipp-80542,setuptools_scm-e036f,Python-3199b
importlib_resources; 36019; 1.0.2; ./importlib_resources/1.0.2/x86_64-centos7-clang10-dbg; setuptools-27e03,Python-3199b,wheel-dc708
iniconfig; 50696; 1.1.1; ./iniconfig/1.1.1/x86_64-centos7-clang10-dbg; setuptools-27e03,Python-3199b
ipaddress; ba297; 1.0.22; ./ipaddress/1.0.22/x86_64-centos7-clang10-dbg; setuptools-27e03,Python-3199b
ipympl; cefef; 0.4.1; ./ipympl/0.4.1/x86_64-centos7-clang10-dbg; setuptools-27e03,matplotlib-b726a,ipywidgets-b5235,ipykernel-d3057,Python-3199b
ipyparallel; cd2a4; 6.2.4; ./ipyparallel/6.2.4/x86_64-centos7-clang10-dbg; ipython_genutils-94aa5,jupyter_client-274a4,pyzmq-d8e7f,ipython-7aecb,tornado-897a1,traitlets-79480,ipykernel-d3057,decorator-e21fb,python_dateutil-9ff92
ipython_genutils; 94aa5; 0.2.0; ./ipython_genutils/0.2.0/x86_64-centos7-clang10-dbg; setuptools-27e03,Python-3199b
ipywidgets; b5235; 7.5.1; ./ipywidgets/7.5.1/x86_64-centos7-clang10-dbg; setuptools-27e03,widgetsnbextension-1fe4c,nbformat-37883,ipython-7aecb,traitlets-79480,ipykernel-d3057,Python-3199b
isort; 4faea; 4.3.20; ./isort/4.3.20/x86_64-centos7-clang10-dbg; setuptools-27e03,Python-3199b
java; 884d8; 8u222; ./java/8u222/x86_64-centos7-clang10-dbg; 
jedi; 8fbb8; 0.13.3; ./jedi/0.13.3/x86_64-centos7-clang10-dbg; setuptools-27e03,Python-3199b,parso-c5561
Jinja2; e5e46; 2.10.1; ./Jinja2/2.10.1/x86_64-centos7-clang10-dbg; setuptools-27e03,MarkupSafe-5c35d,Python-3199b
joblib; ac5a3; 0.14.0; ./joblib/0.14.0/x86_64-centos7-clang10-dbg; setuptools-27e03,Python-3199b
jpype; 32c57; 0.6.3; ./jpype/0.6.3/x86_64-centos7-clang10-dbg; setuptools-27e03,java-884d8,Python-3199b
jsonc; e004f; 0.12; ./jsonc/0.12/x86_64-centos7-clang10-dbg; 
jsoncpp; 0c1cb; 1.9.3; ./jsoncpp/1.9.3/x86_64-centos7-clang10-dbg; 
jsonschema; 53641; 3.0.1; ./jsonschema/3.0.1/x86_64-centos7-clang10-dbg; setuptools-27e03,attrs-6eb83,pyrsistent-010ae,setuptools_scm-e036f,vcversioner-c7626,Python-3199b
pyjson5; b3b19; 0.9.1; ./pyjson5/0.9.1/x86_64-centos7-clang10-dbg; setuptools-27e03,Python-3199b
jupyter; 87b34; 1.0.0; ./jupyter/1.0.0/x86_64-centos7-clang10-dbg; jupyter_core-a3ce7,jupyter_console-58a06,pyzmq-d8e7f,ipywidgets-b5235,Python-3199b,jupyter_client-274a4,tornado-897a1,mistune-e222d,ipykernel-d3057,qtconsole-7afa8,terminado-67460,metakernel-69fb9,pygments-5f9a9,Jinja2-e5e46,nbformat-37883,ipython-7aecb,nbconvert-b4037,jsonschema-53641,setuptools-27e03,entrypoints-c5a66,widgetsnbextension-1fe4c,notebook-01248,certifi-dde3e,MarkupSafe-5c35d
jupyter_contrib_core; beebb; 0.3.3; ./jupyter_contrib_core/0.3.3/x86_64-centos7-clang10-dbg; setuptools-27e03,jupyter_core-a3ce7,entrypoints-c5a66,notebook-01248,tornado-897a1,traitlets-79480
jupyter_contrib_nbextensions; 0c973; 0.5.1; ./jupyter_contrib_nbextensions/0.5.1/x86_64-centos7-clang10-dbg; backports-1c7b1,jupyter_highlight_selected_word-12d66,ipython_genutils-94aa5,jupyter_nbextensions_configurator-689cf,jsonschema-53641,jupyter_latex_envs-e5169,jupyter-87b34,jupyter_contrib_core-beebb,lxml-37ba4,decorator-e21fb,psutil-06bdb,Python-3199b
jupyter_highlight_selected_word; 12d66; 0.2.0; ./jupyter_highlight_selected_word/0.2.0/x86_64-centos7-clang10-dbg; setuptools-27e03,Python-3199b
jupyter_latex_envs; e5169; 1.4.4; ./jupyter_latex_envs/1.4.4/x86_64-centos7-clang10-dbg; setuptools-27e03,Python-3199b
jupyter_nbextensions_configurator; 689cf; 0.4.1; ./jupyter_nbextensions_configurator/0.4.1/x86_64-centos7-clang10-dbg; jupyter_core-a3ce7,notebook-01248,tornado-897a1,traitlets-79480,jupyter_contrib_core-beebb,PyYAML-18c69
keras; ec4b2; 2.2.4; ./keras/2.2.4/x86_64-centos7-clang10-dbg; setuptools-27e03,six-f083a,theano-5d29c,scipy-2a3a5,numpy-32813,h5py-faced,PyYAML-18c69,Python-3199b
keras_applications; c8240; 1.0.8; ./keras_applications/1.0.8/x86_64-centos7-clang10-dbg; setuptools-27e03,keras-ec4b2,Python-3199b
kiwisolver; e6ad1; 1.0.1; ./kiwisolver/1.0.1/x86_64-centos7-clang10-dbg; setuptools-27e03,Python-3199b
kubernetes; b9ff3; 9.0.0; ./kubernetes/9.0.0/x86_64-centos7-clang10-dbg; setuptools-27e03,six-f083a,ipaddress-ba297,requests-11042,websocket_client-e9a3b,google_auth-0a1e8,requests_oauthlib-80059,certifi-dde3e,python_dateutil-9ff92,PyYAML-18c69,Python-3199b,urllib3-011e6
lazy_object_proxy; 07738; 1.4.3; ./lazy_object_proxy/1.4.3/x86_64-centos7-clang10-dbg; setuptools-27e03,Python-3199b
lcov; b9cb3; 1.14; ./lcov/1.14/x86_64-centos7-clang10-dbg; 
libgeotiff; b844e; 1.5.1; ./libgeotiff/1.5.1/x86_64-centos7-clang10-dbg; proj-42070,tiff-3ce57
libgit2; eb69e; 1.0.1; ./libgit2/1.0.1/x86_64-centos7-clang10-dbg; 
libpqxx; df543; 7.1.1; ./libpqxx/7.1.1/x86_64-centos7-clang10-dbg; postgresql-b4308
libsvm; d816a; 3.23; ./libsvm/3.23/x86_64-centos7-clang10-dbg; Python-3199b
libtool; 9ad34; 2.4.2; ./libtool/2.4.2/x86_64-centos7-clang10-dbg; 
libxslt; a0f53; 1.1.34; ./libxslt/1.1.34/x86_64-centos7-clang10-dbg; libxml2-9cd93
LCIO; 76e9e; 02.16; ./LCIO/02.16/x86_64-centos7-clang10-dbg; ROOT-71cc6,clhep-b903d,SIO-caf5f
logilabcommon; 7b3ed; 1.4.2; ./logilabcommon/1.4.2/x86_64-centos7-clang10-dbg; setuptools-27e03,six-f083a,pytest-c572c,Python-3199b
lwtnn; 1a1c5; 2.8.1; ./lwtnn/2.8.1/x86_64-centos7-clang10-dbg; Boost-26bf8,eigen-642a5
lxml; 37ba4; 4.6.2; ./lxml/4.6.2/x86_64-centos7-clang10-dbg; setuptools-27e03,libxslt-a0f53,cython-83dca,libxml2-9cd93,Python-3199b
m2crypto; f2ec7; 0.34.0; ./m2crypto/0.34.0/x86_64-centos7-clang10-dbg; setuptools-27e03,swig-2f4bf,Python-3199b
markdown; b42d1; 3.1.1; ./markdown/3.1.1/x86_64-centos7-clang10-dbg; setuptools-27e03,Python-3199b
MarkupSafe; 5c35d; 1.0; ./MarkupSafe/1.0/x86_64-centos7-clang10-dbg; setuptools-27e03,Python-3199b
maven; 15b64; 3.6.1; ./maven/3.6.1/x86_64-centos7-clang10-dbg; java-884d8
mccabe; 9ed51; 0.6.1; ./mccabe/0.6.1/x86_64-centos7-clang10-dbg; setuptools-27e03,pytest_runner-19882,Python-3199b
messaging; 58db2; 1.1; ./messaging/1.1/x86_64-centos7-clang10-dbg; setuptools-27e03,Python-3199b
metakernel; 69fb9; 0.24.2; ./metakernel/0.24.2/x86_64-centos7-clang10-dbg; setuptools-27e03,pexpect-2ac74,ipython-7aecb,ipykernel-d3057,Python-3199b
minrpc; c0721; 0.0.11; ./minrpc/0.0.11/x86_64-centos7-clang10-dbg; setuptools-27e03,Python-3199b
mistune; e222d; 0.8.4; ./mistune/0.8.4/x86_64-centos7-clang10-dbg; setuptools-27e03,Python-3199b
mock; 79169; 3.0.5; ./mock/3.0.5/x86_64-centos7-clang10-dbg; setuptools-27e03,funcsigs-94a5e,Python-3199b,pbr-db284
mpfi; f2a84; 1.5.3; ./mpfi/1.5.3/x86_64-centos7-clang10-dbg; mpfr-61226
mpfr; 61226; 4.0.2; ./mpfr/4.0.2/x86_64-centos7-clang10-dbg; 
mpmath; 937c2; 1.1.0; ./mpmath/1.1.0/x86_64-centos7-clang10-dbg; setuptools-27e03,Python-3199b
msgpack; f7671; 0.6.1; ./msgpack/0.6.1/x86_64-centos7-clang10-dbg; setuptools-27e03,Python-3199b
multiprocess; c12ef; 0.70.10; ./multiprocess/0.70.10/x86_64-centos7-clang10-dbg; setuptools-27e03,dill-0b1f6,Python-3199b
mysql_connector_python; 490d6; 8.0.18; ./mysql_connector_python/8.0.18/x86_64-centos7-clang10-dbg; setuptools-27e03,protobuf-6f236,Python-3199b,mysql-37651
nanomsg; 30ff1; 1.1.5; ./nanomsg/1.1.5/x86_64-centos7-clang10-dbg; 
nbconvert; b4037; 5.5.0; ./nbconvert/5.5.0/x86_64-centos7-clang10-dbg; setuptools-27e03,jupyter_core-a3ce7,pygments-5f9a9,testpath-530a5,entrypoints-c5a66,Jinja2-e5e46,nbformat-37883,pandocfilters-ee092,Python-3199b,bleach-e2cb0,traitlets-79480,mistune-e222d,defusedxml-08e54
nbformat; 37883; 4.4.0; ./nbformat/4.4.0/x86_64-centos7-clang10-dbg; setuptools-27e03,jupyter_core-a3ce7,ipython_genutils-94aa5,traitlets-79480,jsonschema-53641,Python-3199b
netcdfc; 3e74b; 4.7.0; ./netcdfc/4.7.0/x86_64-centos7-clang10-dbg; zlib-8af4c,m4-3bfe7,hdf5-a3b1e
ninja; 3d8f6; 1.10.0; ./ninja/1.10.0/x86_64-centos7-clang10-dbg; 
node.js; 1566a; 12.16.1; ./node.js/12.16.1/x86_64-centos7-clang10-dbg; Python-3199b
nose; 5b609; 1.3.7; ./nose/1.3.7/x86_64-centos7-clang10-dbg; setuptools-27e03,Python-3199b
notebook; 01248; 5.7.8; ./notebook/5.7.8/x86_64-centos7-clang10-dbg; setuptools-27e03,terminado-67460,ipaddress-ba297,jupyter_core-a3ce7,jupyter_client-274a4,ipython_genutils-94aa5,Jinja2-e5e46,pyzmq-d8e7f,prometheus_client-e4637,nbformat-37883,tornado-897a1,send2trash-969d0,traitlets-79480,nbconvert-b4037,ipykernel-d3057,Python-3199b
numexpr; d9e73; 2.6.9; ./numexpr/2.6.9/x86_64-centos7-clang10-dbg; numpy-32813,Python-3199b
oauthlib; 223fe; 3.0.1; ./oauthlib/3.0.1/x86_64-centos7-clang10-dbg; setuptools-27e03,cryptography-34e41,Python-3199b
ocaml; a9338; 4.10.0; ./ocaml/4.10.0/x86_64-centos7-clang10-dbg; 
omniorb; dcc65; 4.2.2; ./omniorb/4.2.2/x86_64-centos7-clang10-dbg; Python-3199b
openmpi; 37032; 3.1.0; ./openmpi/3.1.0/x86_64-centos7-clang10-dbg; 
packaging; 11c14; 19.0; ./packaging/19.0/x86_64-centos7-clang10-dbg; setuptools-27e03,six-f083a,pyparsing-6a86f,Python-3199b
pacparser; 85c21; 1.3.7; ./pacparser/1.3.7/x86_64-centos7-clang10-dbg; 
pandas; 63a4e; 0.24.2; ./pandas/0.24.2/x86_64-centos7-clang10-dbg; setuptools-27e03,hypothesis-bd043,cython-83dca,pytz-08128,numpy-32813,python_dateutil-9ff92,Python-3199b
pandocfilters; ee092; 1.4.2; ./pandocfilters/1.4.2/x86_64-centos7-clang10-dbg; setuptools-27e03,Python-3199b
pango; dc9ba; 1.40.13; ./pango/1.40.13/x86_64-centos7-clang10-dbg; freetype-08d63,harfbuzz-54c61,fontconfig-241fb,cairo-f2c05
param; 753ab; 1.9.3; ./param/1.9.3/x86_64-centos7-clang10-dbg; setuptools-27e03,Python-3199b
parso; c5561; 0.4.0; ./parso/0.4.0/x86_64-centos7-clang10-dbg; setuptools-27e03,Python-3199b
pathlib2; 12564; 2.3.3; ./pathlib2/2.3.3/x86_64-centos7-clang10-dbg; setuptools-27e03,six-f083a,scandir-f348f,Python-3199b
pathos; 644ae; 0.2.3; ./pathos/0.2.3/x86_64-centos7-clang10-dbg; setuptools-27e03,six-f083a,multiprocess-c12ef,ppft-305cf,Python-3199b,pox-7da5b
patsy; ccc6c; 0.5.1; ./patsy/0.5.1/x86_64-centos7-clang10-dbg; setuptools-27e03,six-f083a,Python-3199b,numpy-32813,pandas-63a4e
pbr; db284; 5.2.1; ./pbr/5.2.1/x86_64-centos7-clang10-dbg; setuptools-27e03,Python-3199b
pcre; 5c0c1; 8.43; ./pcre/8.43/x86_64-centos7-clang10-dbg; 
pexpect; 2ac74; 4.7.0; ./pexpect/4.7.0/x86_64-centos7-clang10-dbg; setuptools-27e03,ptyprocess-e6e90,Python-3199b
pickleshare; a69d8; 0.7.5; ./pickleshare/0.7.5/x86_64-centos7-clang10-dbg; setuptools-27e03,pathlib2-12564,Python-3199b
pillow; 71095; 6.2.2; ./pillow/6.2.2/x86_64-centos7-clang10-dbg; setuptools-27e03,freetype-08d63,libffi-26487,zlib-8af4c,Python-3199b
pip; ee752; 19.1.1; ./pip/19.1.1/x86_64-centos7-clang10-dbg; setuptools-27e03,Python-3199b,wheel-dc708
pixman; 46112; 0.38.4; ./pixman/0.38.4/x86_64-centos7-clang10-dbg; 
pjlsa; f31bc; 0.0.14; ./pjlsa/0.0.14/x86_64-centos7-clang10-dbg; setuptools-27e03,numpy-32813,Python-3199b,cmmnbuild-f5ade
pkgconfig; 5c0e3; 1.5.1; ./pkgconfig/1.5.1/x86_64-centos7-clang10-dbg; setuptools-27e03,Python-3199b
plotly; 17012; 4.5.0; ./plotly/4.5.0/x86_64-centos7-clang10-dbg; six-f083a,matplotlib-b726a,retrying-688da,Python-3199b
pluggy; 86414; 0.13.1; ./pluggy/0.13.1/x86_64-centos7-clang10-dbg; setuptools-27e03,zipp-80542,setuptools_scm-e036f,importlib_metadata-30aeb,Python-3199b
podio; b26c9; 00.13; ./podio/00.13/x86_64-centos7-clang10-dbg; ROOT-71cc6,SIO-caf5f,PyYAML-18c69,Python-3199b
postgresql; b4308; 12.2; ./postgresql/12.2/x86_64-centos7-clang10-dbg; 
pox; 7da5b; 0.2.5; ./pox/0.2.5/x86_64-centos7-clang10-dbg; setuptools-27e03,Python-3199b
ppft; 305cf; 1.6.4.9; ./ppft/1.6.4.9/x86_64-centos7-clang10-dbg; setuptools-27e03,dill-0b1f6,Python-3199b
prctl; 9bdf7; 1.7; ./prctl/1.7/x86_64-centos7-clang10-dbg; setuptools-27e03,Python-3199b
prettytable; c7f91; 0.7.2; ./prettytable/0.7.2/x86_64-centos7-clang10-dbg; setuptools-27e03,Python-3199b
proj; 42070; 6.0.0; ./proj/6.0.0/x86_64-centos7-clang10-dbg; sqlite-3c47f,pkg_config-c6baf
prometheus_client; e4637; 0.7.0; ./prometheus_client/0.7.0/x86_64-centos7-clang10-dbg; setuptools-27e03,Python-3199b
protobuf; 6f236; 2.5.0; ./protobuf/2.5.0/x86_64-centos7-clang10-dbg; 
psutil; 06bdb; 5.6.2; ./psutil/5.6.2/x86_64-centos7-clang10-dbg; setuptools-27e03,Python-3199b
ptyprocess; e6e90; 0.6.0; ./ptyprocess/0.6.0/x86_64-centos7-clang10-dbg; setuptools-27e03,Python-3199b
py; e4ba6; 1.9.0; ./py/1.9.0/x86_64-centos7-clang10-dbg; setuptools-27e03,setuptools_scm-e036f,Python-3199b
py4j; 63503; 0.10.9.1; ./py4j/0.10.9.1/x86_64-centos7-clang10-dbg; setuptools-27e03,Python-3199b
pyanalysis; bc74f; 2.0; ./pyanalysis/2.0/x86_64-centos7-clang10-dbg; uncertainties-82b25,sympy-76a85,elasticsearch-76771,jpype-32c57,matplotlib-b726a,scikitlearn-bb0e9,numexpr-d9e73,pytimber-62f06,hepdata_converter-86c20,pyparsing-6a86f,hepdata_validator-437a2,cmmnbuild-f5ade,joblib-ac5a3,iminuit-4b8d6,root_numpy-23a32,pytz-08128,scipy-2a3a5,numpy-32813
pyarrow; 84cb1; 0.16.0; ./pyarrow/0.16.0/x86_64-centos7-clang10-dbg; pkg_config-c6baf,six-f083a,cython-83dca,setuptools_scm-e036f,numpy-32813,arrow-8ee77
pyasn1; a72f6; 0.4.5; ./pyasn1/0.4.5/x86_64-centos7-clang10-dbg; setuptools-27e03,Python-3199b
pyasn1_modules; 07fd8; 0.2.5; ./pyasn1_modules/0.2.5/x86_64-centos7-clang10-dbg; setuptools-27e03,pyasn1-a72f6,Python-3199b
pycairo; afd39; 1.18.1; ./pycairo/1.18.1/x86_64-centos7-clang10-dbg; setuptools-27e03,Python-3199b,cairo-f2c05
pycodestyle; f0d66; 2.5.0; ./pycodestyle/2.5.0/x86_64-centos7-clang10-dbg; setuptools-27e03,Python-3199b
pycparser; 6a30e; 2.19; ./pycparser/2.19/x86_64-centos7-clang10-dbg; setuptools-27e03,Python-3199b
pyct; a41ce; 0.4.6; ./pyct/0.4.6/x86_64-centos7-clang10-dbg; setuptools-27e03,Python-3199b,param-753ab
pydot; d8114; 1.4.1; ./pydot/1.4.1/x86_64-centos7-clang10-dbg; pyparsing-6a86f,Python-3199b
pydot_ng; d8af2; 2.0.0; ./pydot_ng/2.0.0/x86_64-centos7-clang10-dbg; pyparsing-6a86f,Python-3199b
pyflakes; a6ee8; 2.1.1; ./pyflakes/2.1.1/x86_64-centos7-clang10-dbg; setuptools-27e03,Python-3199b
pygments; 5f9a9; 2.4.2; ./pygments/2.4.2/x86_64-centos7-clang10-dbg; setuptools-27e03,Python-3199b
pygraphics; 8db12; 2.0; ./pygraphics/2.0/x86_64-centos7-clang10-dbg; pyqt5-19924,sip-182c9,pydot-d8114
pygraphviz; d97a5; 1.5; ./pygraphviz/1.5/x86_64-centos7-clang10-dbg; setuptools-27e03,graphviz-11724,Python-3199b
pyjapc; a6a36; 2.0.4; ./pyjapc/2.0.4/x86_64-centos7-clang10-dbg; setuptools-27e03,Python-3199b
PyJWT; c0cc3; 1.7.1; ./PyJWT/1.7.1/x86_64-centos7-clang10-dbg; setuptools-27e03
pyparsing; 6a86f; 2.4.0; ./pyparsing/2.4.0/x86_64-centos7-clang10-dbg; setuptools-27e03,Python-3199b
pyqt5; 19924; 5.12.3; ./pyqt5/5.12.3/x86_64-centos7-clang10-dbg; sip-182c9,Python-3199b,Qt5-f4191
PyRDF; 77b4c; 0.2.1; ./PyRDF/0.2.1/x86_64-centos7-clang10-dbg; setuptools-27e03,ROOT-71cc6,spark-89e52,py4j-63503,Python-3199b,nose-5b609
pyrsistent; 010ae; 0.15.2; ./pyrsistent/0.15.2/x86_64-centos7-clang10-dbg; setuptools-27e03,six-f083a,Python-3199b
pystan; 550c0; 2.19.1.1; ./pystan/2.19.1.1/x86_64-centos7-clang10-dbg; setuptools-27e03,wheel-dc708,cython-83dca,numpy-32813,pip-ee752,Python-3199b
pyshp; c9b9c; 2.1.0; ./pyshp/2.1.0/x86_64-centos7-clang10-dbg; setuptools-27e03
pytest_runner; 19882; 5.1; ./pytest_runner/5.1/x86_64-centos7-clang10-dbg; setuptools-27e03,setuptools_scm-e036f,Python-3199b
python_dateutil; 9ff92; 2.8.0; ./python_dateutil/2.8.0/x86_64-centos7-clang10-dbg; setuptools-27e03,six-f083a,setuptools_scm-e036f,Python-3199b
python_gitlab; 12abe; 1.8.0; ./python_gitlab/1.8.0/x86_64-centos7-clang10-dbg; setuptools-27e03,six-f083a,Python-3199b,requests-11042
pytimber; 62f06; 2.7.0; ./pytimber/2.7.0/x86_64-centos7-clang10-dbg; jpype-32c57,matplotlib-b726a,cmmnbuild-f5ade,numpy-32813,Python-3199b
pytools; 1a04f; 2019.1.1; ./pytools/2019.1.1/x86_64-centos7-clang10-dbg; simplejson-dc28e,mock-79169,jupyter_core-a3ce7,jupyter_console-58a06,pyzmq-d8e7f,genshi-727bc,chardet-6c479,ipywidgets-b5235,lxml-37ba4,decorator-e21fb,python_dateutil-9ff92,messaging-58db2,py4j-63503,simplegeneric-6c6c6,nose-5b609,six-f083a,networkx-c7b5c,jupyter_client-274a4,pathlib2-12564,cycler-94dd8,prctl-9bdf7,CouchDB-44f5f,requests-11042,python_gitlab-12abe,tornado-897a1,wcwidth-d9bfe,mistune-e222d,jupyter-87b34,ipykernel-d3057,m2crypto-f2ec7,qtconsole-7afa8,pip-ee752,PyYAML-18c69,pickleshare-a69d8,pox-7da5b,backports-1c7b1,coverage-4db6b,terminado-67460,metakernel-69fb9,pygments-5f9a9,ipython_genutils-94aa5,pexpect-2ac74,prettytable-c7f91,Jinja2-e5e46,wheel-dc708,cx_oracle-de2d9,nbformat-37883,ipython-7aecb,singledispatch-ea5c4,py-e4ba6,traitlets-79480,pytz-08128,nbconvert-b4037,jsonschema-53641,urllib3-011e6,setuptools-27e03,sqlalchemy-00193,pytest-c572c,ptyprocess-e6e90,prompt_toolkit-5446b,ppft-305cf,pathos-644ae,notebook-01248,stomppy-3595a,certifi-dde3e,MarkupSafe-5c35d,dill-0b1f6,pandas-63a4e
pytz; 08128; 2019.1; ./pytz/2019.1/x86_64-centos7-clang10-dbg; setuptools-27e03,Python-3199b
pywt; 10f7d; 1.0.3; ./pywt/1.0.3/x86_64-centos7-clang10-dbg; setuptools-27e03,cython-83dca,pillow-71095,numpy-32813,Python-3199b
pyzmq; d8e7f; 18.0.1; ./pyzmq/18.0.1/x86_64-centos7-clang10-dbg; setuptools-27e03,zeromq-3b844,Python-3199b,cython-83dca
QMtest; a12ec; 2.4.1; ./QMtest/2.4.1/x86_64-centos7-clang10-dbg; Python-3199b
Qt5; f4191; 5.12.4; ./qt5/5.12.4/x86_64-centos7-clang10-dbg; libxkbcommon-13e99,fontconfig-241fb,Python-3199b
qtconsole; 7afa8; 4.5.1; ./qtconsole/4.5.1/x86_64-centos7-clang10-dbg; setuptools-27e03,jupyter_core-a3ce7,jupyter_client-274a4,pygments-5f9a9,ipython_genutils-94aa5,Qt5-f4191,traitlets-79480,ipykernel-d3057,Python-3199b
qtpy; ccd6a; 1.7.1; ./qtpy/1.7.1/x86_64-centos7-clang10-dbg; setuptools-27e03,pyqt5-19924,Python-3199b
rangev3; f77b8; 0.10.0; ./rangev3/0.10.0/x86_64-centos7-clang10-dbg; 
rapidjson; 0b862; 1.1.0; ./rapidjson/1.1.0/x86_64-centos7-clang10-dbg; 
requests; 11042; 2.22.0; ./requests/2.22.0/x86_64-centos7-clang10-dbg; setuptools-27e03,certifi-dde3e,chardet-6c479,idna-6e42a,Python-3199b,urllib3-011e6
requests_oauthlib; 80059; 1.2.0; ./requests_oauthlib/1.2.0/x86_64-centos7-clang10-dbg; setuptools-27e03,requests-11042,oauthlib-223fe,Python-3199b
retrying; 688da; 1.3.3; ./retrying/1.3.3/x86_64-centos7-clang10-dbg; six-f083a,Python-3199b
rise; 2570f; 5.5.0; ./rise/5.5.0/x86_64-centos7-clang10-dbg; setuptools-27e03,jupyter_core-a3ce7,ipython_genutils-94aa5,notebook-01248,tornado-897a1,traitlets-79480,decorator-e21fb,Python-3199b
root_numpy; 23a32; 4.8.0; ./root_numpy/4.8.0/x86_64-centos7-clang10-dbg; ROOT-71cc6,numpy-32813,Python-3199b
rsa; f2b0f; 4.0; ./rsa/4.0/x86_64-centos7-clang10-dbg; setuptools-27e03,pyasn1-a72f6,Python-3199b
scandir; f348f; 1.10.0; ./scandir/1.10.0/x86_64-centos7-clang10-dbg; setuptools-27e03,Python-3199b
scikitimage; f6054; 0.14.3; ./scikitimage/0.14.3/x86_64-centos7-clang10-dbg; setuptools-27e03,networkx-c7b5c,matplotlib-b726a,imageio-a6c59,cython-83dca,pillow-71095,scipy-2a3a5,numpy-32813,pywt-10f7d,Python-3199b
seaborn; 590a7; 0.9.0; ./seaborn/0.9.0/x86_64-centos7-clang10-dbg; setuptools-27e03,matplotlib-b726a,Python-3199b,scipy-2a3a5,numpy-32813,statsmodels-2f566,pandas-63a4e
send2trash; 969d0; 1.5.0; ./send2trash/1.5.0/x86_64-centos7-clang10-dbg; setuptools-27e03,Python-3199b
setuptools_scm; e036f; 3.3.3; ./setuptools_scm/3.3.3/x86_64-centos7-clang10-dbg; setuptools-27e03,Python-3199b
shapely; 21ab8; 1.6.4.post2; ./shapely/1.6.4.post2/x86_64-centos7-clang10-dbg; setuptools-27e03,cython-83dca,geos-8602e,numpy-32813,Python-3199b
simplegeneric; 6c6c6; 0.8.1; ./simplegeneric/0.8.1/x86_64-centos7-clang10-dbg; setuptools-27e03,Python-3199b
simplejson; dc28e; 3.16.1; ./simplejson/3.16.1/x86_64-centos7-clang10-dbg; setuptools-27e03,Python-3199b
singledispatch; ea5c4; 3.4.0.3; ./singledispatch/3.4.0.3/x86_64-centos7-clang10-dbg; setuptools-27e03,six-f083a,Python-3199b
sip; 182c9; 4.19.15; ./sip/4.19.15/x86_64-centos7-clang10-dbg; Python-3199b
six; f083a; 1.12.0; ./six/1.12.0/x86_64-centos7-clang10-dbg; setuptools-27e03,Python-3199b
snappy; 4d9e7; 1.1.7; ./snappy/1.1.7/x86_64-centos7-clang10-dbg; 
sollya; 60a5a; 7.0; ./sollya/7.0/x86_64-centos7-clang10-dbg; mpfr-61226,mpfi-f2a84,libxml2-9cd93,fplll-5b7ab
sortedcontainers; f643e; 2.1.0; ./sortedcontainers/2.1.0/x86_64-centos7-clang10-dbg; setuptools-27e03,Python-3199b
spark; 89e52; 3.0.1-cern1; ./spark/3.0.1-cern1/x86_64-centos7-clang10-dbg; hadoop-0c87f,Python-3199b
spdlog; d6cb3; 1.5.0; ./spdlog/1.5.0/x86_64-centos7-clang10-dbg; 
sqlalchemy; 00193; 1.2.10; ./sqlalchemy/1.2.10/x86_64-centos7-clang10-dbg; setuptools-27e03,Python-3199b
statsmodels; 2f566; 0.10.2; ./statsmodels/0.10.2/x86_64-centos7-clang10-dbg; setuptools-27e03,matplotlib-b726a,ipython-7aecb,cython-83dca,Python-3199b,scipy-2a3a5,numpy-32813,patsy-ccc6c,pandas-63a4e,nose-5b609
storm; 8e5a4; 0.23; ./storm/0.23/x86_64-centos7-clang10-dbg; setuptools-27e03,Python-3199b
swig; 2f4bf; 4.0.2; ./swig/4.0.2/x86_64-centos7-clang10-dbg; Boost-26bf8,pcre-5c0c1,Python-3199b
sympy; 76a85; 1.4; ./sympy/1.4/x86_64-centos7-clang10-dbg; setuptools-27e03,Python-3199b
SIO; caf5f; 00.00.04; ./SIO/00.00.04/x86_64-centos7-clang10-dbg; zlib-8af4c
tblib; 7f558; 1.4.0; ./tblib/1.4.0/x86_64-centos7-clang10-dbg; setuptools-27e03,Python-3199b
termcolor; 53dbb; 1.1.0; ./termcolor/1.1.0/x86_64-centos7-clang10-dbg; setuptools-27e03,Python-3199b
terminado; 67460; 0.8.2; ./terminado/0.8.2/x86_64-centos7-clang10-dbg; setuptools-27e03,ptyprocess-e6e90,tornado-897a1,Python-3199b
testpath; 530a5; 0.4.2; ./testpath/0.4.2/x86_64-centos7-clang10-dbg; setuptools-27e03,Python-3199b
texinfo; 21d20; 6.3; ./texinfo/6.3/x86_64-centos7-clang10-dbg; 
theano; 5d29c; 1.0.4; ./theano/1.0.4/x86_64-centos7-clang10-dbg; six-f083a,pygments-5f9a9,pydot-d8114,graphviz-11724,scipy-2a3a5,numpy-32813,pydot_ng-d8af2,nose-5b609
thrift; 42393; 0.13.0; ./thrift/0.13.0/x86_64-centos7-clang10-dbg; pkg_config-c6baf,flex-5ae78,Boost-26bf8,bison-d8b6b
tiff; 3ce57; 4.0.10; ./tiff/4.0.10/x86_64-centos7-clang10-dbg; 
toolz; 73470; 0.9.0; ./toolz/0.9.0/x86_64-centos7-clang10-dbg; setuptools-27e03,Python-3199b
tornado; 897a1; 5.1.1; ./tornado/5.1.1/x86_64-centos7-clang10-dbg; setuptools-27e03,certifi-dde3e,Python-3199b,backports-1c7b1
traitlets; 79480; 4.3.2; ./traitlets/4.3.2/x86_64-centos7-clang10-dbg; setuptools-27e03,six-f083a,ipython_genutils-94aa5,decorator-e21fb,Python-3199b
traittypes; d9e57; 0.2.1; ./traittypes/0.2.1/x86_64-centos7-clang10-dbg; setuptools-27e03,Python-3199b
tricktrack; 829d0; 1.0.9; ./tricktrack/1.0.9/x86_64-centos7-clang10-dbg; eigen-642a5
typing_extensions; 49fdd; 3.7.4.3; ./typing_extensions/3.7.4.3/x86_64-centos7-clang10-dbg; setuptools-27e03,Python-3199b
tzlocal; 891c9; 2.0.0; ./tzlocal/2.0.0/x86_64-centos7-clang10-dbg; setuptools-27e03,pytz-08128,Python-3199b
umesimd; 14a15; 0.8.1; ./umesimd/0.8.1/x86_64-centos7-clang10-dbg; 
uncertainties; 82b25; 3.1.2; ./uncertainties/3.1.2/x86_64-centos7-clang10-dbg; setuptools-27e03,numpy-32813,Python-3199b
unigen; 938fd; 2.2; ./unigen/2.2/x86_64-centos7-clang10-dbg; ROOT-71cc6
uproot; 44df8; 3.10.12; ./uproot/3.10.12/x86_64-centos7-clang10-dbg; numpy-32813,cachetools-3bdaf,uproot_methods-7defa,awkward-be086
uproot_methods; 7defa; 0.7.1; ./uproot_methods/0.7.1/x86_64-centos7-clang10-dbg; numpy-32813
urllib3; 011e6; 1.25.3; ./urllib3/1.25.3/x86_64-centos7-clang10-dbg; setuptools-27e03,Python-3199b
valgrind; 14406; 3.16.1; ./valgrind/3.16.1/x86_64-centos7-clang10-dbg; 
vcversioner; c7626; 2.16.0.0; ./vcversioner/2.16.0.0/x86_64-centos7-clang10-dbg; setuptools-27e03,Python-3199b
veccore; a8a44; 0.6.0; ./veccore/0.6.0/x86_64-centos7-clang10-dbg; Vc-d25d4,umesimd-14a15
VecGeom; 30bc7; v1.1.8; ./VecGeom/v1.1.8/x86_64-centos7-clang10-dbg; Vc-d25d4,XercesC-714f6,veccore-a8a44
vectorclass; cdfdb; 2.01.02; ./vectorclass/2.01.02/x86_64-centos7-clang10-dbg; 
wcwidth; d9bfe; 0.1.7; ./wcwidth/0.1.7/x86_64-centos7-clang10-dbg; setuptools-27e03,Python-3199b
webencodings; c9979; 0.5.1; ./webencodings/0.5.1/x86_64-centos7-clang10-dbg; setuptools-27e03,Python-3199b
websocket_client; e9a3b; 0.56.0; ./websocket_client/0.56.0/x86_64-centos7-clang10-dbg; setuptools-27e03,six-f083a,Python-3199b
werkzeug; 0963b; 0.15.4; ./werkzeug/0.15.4/x86_64-centos7-clang10-dbg; setuptools-27e03,Python-3199b
wheel; dc708; 0.33.4; ./wheel/0.33.4/x86_64-centos7-clang10-dbg; setuptools-27e03,Python-3199b
widgetsnbextension; 1fe4c; 3.5.1; ./widgetsnbextension/3.5.1/x86_64-centos7-clang10-dbg; setuptools-27e03,jupyter_core-a3ce7,ipython_genutils-94aa5,notebook-01248,tornado-897a1,traitlets-79480,decorator-e21fb,Python-3199b
wrapt; f9767; 1.11.1; ./wrapt/1.11.1/x86_64-centos7-clang10-dbg; setuptools-27e03,Python-3199b
xapian; 02310; 1.4.11; ./xapian/1.4.11/x86_64-centos7-clang10-dbg; 
xenv; 5cf5b; 1.0.0; ./xenv/1.0.0/x86_64-centos7-clang10-dbg; setuptools_scm-e036f,Python-3199b,nose-5b609
XercesC; 714f6; 3.2.3; ./XercesC/3.2.3/x86_64-centos7-clang10-dbg; 
xgboost; b423a; 0.90; ./xgboost/0.90/x86_64-centos7-clang10-dbg; numpy-32813,setuptools-27e03,Python-3199b,scipy-2a3a5
xqilla; c5cd1; 2.3.4; ./xqilla/2.3.4/x86_64-centos7-clang10-dbg; XercesC-714f6
yamlcpp; d05b2; 0.6.3; ./yamlcpp/0.6.3/x86_64-centos7-clang10-dbg; 
zict; 1addf; 0.1.4; ./zict/0.1.4/x86_64-centos7-clang10-dbg; setuptools-27e03,HeapDict-8e59b,Python-3199b
zipp; 80542; 0.5.1; ./zipp/0.5.1/x86_64-centos7-clang10-dbg; setuptools-27e03,setuptools_scm-e036f,Python-3199b
zstandard; 6c3bd; 0.14.0; ./zstandard/0.14.0/x86_64-centos7-clang10-dbg; setuptools-27e03,cffi-7f42b,Python-3199b
OWSLib; 23143; 0.17.1; ./OWSLib/0.17.1/x86_64-centos7-clang10-dbg; setuptools-27e03,pyproj-af4da,requests-11042,pytz-08128,lxml-37ba4,python_dateutil-9ff92,Python-3199b
pyproj; af4da; 2.1.3; ./pyproj/2.1.3/x86_64-centos7-clang10-dbg; setuptools-27e03,proj-42070,Python-3199b,cython-83dca
libunwind; 2fa0a; 1.3.1; ./libunwind/1.3.1/x86_64-centos7-clang10-dbg; 
igprof; 01485; 5.9.16; ./igprof/5.9.16/x86_64-centos7-clang10-dbg; libunwind-2fa0a
CORAL; 2f825; 3_3_3; ./CORAL/3_3_3/x86_64-centos7-clang10-dbg; sqlite-3c47f,ccache-7651f,Frontier_Client-56775,libaio-3a85a,CppUnit-b79b3,expat-ad2fa,XercesC-714f6,Boost-26bf8,valgrind-14406,oracle-0ceff,QMtest-a12ec,ninja-3d8f6,Python-3199b,mysql-37651
COOL; e608d; 3_3_3; ./COOL/3_3_3/x86_64-centos7-clang10-dbg; ROOT-71cc6,CORAL-2f825,vdt-992df,Qt5-f4191
Gaudi; eaf2c; v35r0; ./Gaudi/v35r0/x86_64-centos7-clang10-dbg; GSL-ecdfc,ROOT-71cc6,six-f083a,rangev3-f77b8,CppUnit-b79b3,HepPDT-dba76,gperftools-1db90,clhep-b903d,xenv-5cf5b,XercesC-714f6,jsonmcpp-72770,Boost-26bf8,cppgsl-7a1b6,fmt-d6e16,AIDA-3fe9f,HepMC-d5a39,doxygen-24a04,libunwind-2fa0a,Python-3199b
catboost; e144e; 0.9.1.1; ./catboost/0.9.1.1/x86_64-centos7-clang10-dbg; six-f083a,matplotlib-b726a,flatbuffers-c4774,Python-3199b,graphviz-11724,scipy-2a3a5,numpy-32813,plotly-17012,pandas-63a4e
flex; 5ae78; 2.6.4; ./flex/2.6.4/x86_64-centos7-clang10-dbg; bison-d8b6b
go; ff8e6; 1.12.5; ./go/1.12.5/x86_64-centos7-clang10-dbg; 
gomacro; 05315; c9f381e; ./gomacro/c9f381e/x86_64-centos7-clang10-dbg; go-ff8e6,go_runewidth-ec180,go_liner-5ab05
gophernotes; 6befb; 7c3ca4e; ./gophernotes/7c3ca4e/x86_64-centos7-clang10-dbg; pkg_config-c6baf,go-ff8e6,go_runewidth-ec180,go.uuid-973d9,go_zmq4-b7a18,go_liner-5ab05,gomacro-05315
go_demangle; 84b17; 5e5cf60; ./go_demangle/5e5cf60/x86_64-centos7-clang10-dbg; go-ff8e6
go_liner; 5ab05; 6f820f8; ./go_liner/6f820f8/x86_64-centos7-clang10-dbg; go-ff8e6,go_runewidth-ec180
go_readline; 02db8; 2972be2; ./go_readline/2972be2/x86_64-centos7-clang10-dbg; go-ff8e6,go_liner-5ab05
go_runewidth; ec180; 703b5e6; ./go_runewidth/703b5e6/x86_64-centos7-clang10-dbg; go-ff8e6
go_zmq4; b7a18; 7a493a6; ./go_zmq4/7a493a6/x86_64-centos7-clang10-dbg; zeromq-3b844,go-ff8e6
go.uuid; 973d9; b2ce238; ./go.uuid/b2ce238/x86_64-centos7-clang10-dbg; go-ff8e6
gperftools; 1db90; 2.8.1; ./gperftools/2.8.1/x86_64-centos7-clang10-dbg; pprof-7afca,libunwind-2fa0a
libxkbcommon; 13e99; 0.7.1; ./libxkbcommon/0.7.1/x86_64-centos7-clang10-dbg; bison-d8b6b
madx; 7cd8a; 5.06.01; ./madx/5.06.01/x86_64-centos7-clang10-dbg; zlib-8af4c,blas-a9d2a
cpymad; 86511; 1.6.3; ./cpymad/1.6.3/x86_64-centos7-clang10-dbg; setuptools-27e03,minrpc-c0721,pathlib2-12564,madx-7cd8a,importlib_resources-36019,cython-83dca,numpy-32813,Python-3199b
octave; dd3fb; 5.1.0; ./octave/5.1.0/x86_64-centos7-clang10-dbg; gnuplot-0903c,texinfo-21d20,readline-2ff43,Qt5-f4191,pcre-5c0c1,blas-a9d2a
octavekernel; 35025; 0.31.0; ./octavekernel/0.31.0/x86_64-centos7-clang10-dbg; setuptools-27e03,metakernel-69fb9,jupyter_client-274a4,ipykernel-d3057,octave-dd3fb,Python-3199b
pprof; 7afca; 54271f7; ./pprof/54271f7/x86_64-centos7-clang10-dbg; go_readline-02db8,go-ff8e6,graphviz-11724,go_demangle-84b17
pythonsollya; 469db; 0.3; ./pythonsollya/0.3/x86_64-centos7-clang10-dbg; setuptools-27e03,six-f083a,cython-83dca,sollya-60a5a,pip-ee752,mpfi-f2a84,Python-3199b
R; 3e07c; 3.6.3; ./R/3.6.3/x86_64-centos7-clang10-dbg; pkg_config-c6baf,proj-42070,libgit2-eb69e,gdal-0afc4,pcre-5c0c1,zlib-8af4c,cairo-f2c05,zeromq-3b844
readline; 2ff43; 8.0; ./readline/8.0/x86_64-centos7-clang10-dbg; 
neurobayes; e06fd; 3.7.0; ./neurobayes/3.7.0/x86_64-centos7-clang10-dbg; 
neurobayes_expert; d587a; 3.7.0; ./neurobayes_expert/3.7.0/x86_64-centos7-clang10-dbg; 
dcap; cdd28; 2.47.7-1; ./Grid/dcap/2.47.7-1/x86_64-centos7-clang10-dbg; 
gfal; 6fc75; 1.13.0-0; ./Grid/gfal/1.13.0-0/x86_64-centos7-clang10-dbg; 
srm_ifce; be254; 1.13.0-0; ./Grid/srm-ifce/1.13.0-0/x86_64-centos7-clang10-dbg; 
